<?xml version="1.0" encoding="UTF-8"?>
<testsuite xmlns:xsi="http://www.w3.org/2001/XMLSchema-instance" xsi:noNamespaceSchemaLocation="https://maven.apache.org/surefire/maven-surefire-plugin/xsd/surefire-test-report.xsd" name="TestSuite" time="38.765" tests="1" errors="0" skipped="0" failures="0">
  <properties>
    <property name="java.specification.version" value="14"/>
    <property name="sun.jnu.encoding" value="UTF-8"/>
    <property name="java.class.path" value="/Users/sasireddy/eclipse-workspace/Barn2Door/target/test-classes:/Users/sasireddy/eclipse-workspace/Barn2Door/target/classes:/Users/sasireddy/.m2/repository/org/testng/testng/6.11/testng-6.11.jar:/Users/sasireddy/.m2/repository/com/beust/jcommander/1.64/jcommander-1.64.jar:/Users/sasireddy/.m2/repository/org/yaml/snakeyaml/1.17/snakeyaml-1.17.jar:/Users/sasireddy/.m2/repository/org/seleniumhq/selenium/selenium-java/3.141.59/selenium-java-3.141.59.jar:/Users/sasireddy/.m2/repository/org/seleniumhq/selenium/selenium-api/3.141.59/selenium-api-3.141.59.jar:/Users/sasireddy/.m2/repository/org/seleniumhq/selenium/selenium-chrome-driver/3.141.59/selenium-chrome-driver-3.141.59.jar:/Users/sasireddy/.m2/repository/org/seleniumhq/selenium/selenium-edge-driver/3.141.59/selenium-edge-driver-3.141.59.jar:/Users/sasireddy/.m2/repository/org/seleniumhq/selenium/selenium-firefox-driver/3.141.59/selenium-firefox-driver-3.141.59.jar:/Users/sasireddy/.m2/repository/org/seleniumhq/selenium/selenium-ie-driver/3.141.59/selenium-ie-driver-3.141.59.jar:/Users/sasireddy/.m2/repository/org/seleniumhq/selenium/selenium-opera-driver/3.141.59/selenium-opera-driver-3.141.59.jar:/Users/sasireddy/.m2/repository/org/seleniumhq/selenium/selenium-remote-driver/3.141.59/selenium-remote-driver-3.141.59.jar:/Users/sasireddy/.m2/repository/org/seleniumhq/selenium/selenium-safari-driver/3.141.59/selenium-safari-driver-3.141.59.jar:/Users/sasireddy/.m2/repository/org/seleniumhq/selenium/selenium-support/3.141.59/selenium-support-3.141.59.jar:/Users/sasireddy/.m2/repository/net/bytebuddy/byte-buddy/1.8.15/byte-buddy-1.8.15.jar:/Users/sasireddy/.m2/repository/org/apache/commons/commons-exec/1.3/commons-exec-1.3.jar:/Users/sasireddy/.m2/repository/com/google/guava/guava/25.0-jre/guava-25.0-jre.jar:/Users/sasireddy/.m2/repository/com/google/code/findbugs/jsr305/1.3.9/jsr305-1.3.9.jar:/Users/sasireddy/.m2/repository/org/checkerframework/checker-compat-qual/2.0.0/checker-compat-qual-2.0.0.jar:/Users/sasireddy/.m2/repository/com/google/errorprone/error_prone_annotations/2.1.3/error_prone_annotations-2.1.3.jar:/Users/sasireddy/.m2/repository/com/google/j2objc/j2objc-annotations/1.1/j2objc-annotations-1.1.jar:/Users/sasireddy/.m2/repository/org/codehaus/mojo/animal-sniffer-annotations/1.14/animal-sniffer-annotations-1.14.jar:/Users/sasireddy/.m2/repository/com/squareup/okhttp3/okhttp/3.11.0/okhttp-3.11.0.jar:/Users/sasireddy/.m2/repository/com/squareup/okio/okio/1.14.0/okio-1.14.0.jar:/Users/sasireddy/.m2/repository/org/apache/maven/plugins/maven-compiler-plugin/3.7.0/maven-compiler-plugin-3.7.0.jar:/Users/sasireddy/.m2/repository/org/apache/maven/maven-plugin-api/3.0/maven-plugin-api-3.0.jar:/Users/sasireddy/.m2/repository/org/sonatype/sisu/sisu-inject-plexus/1.4.2/sisu-inject-plexus-1.4.2.jar:/Users/sasireddy/.m2/repository/org/sonatype/sisu/sisu-inject-bean/1.4.2/sisu-inject-bean-1.4.2.jar:/Users/sasireddy/.m2/repository/org/sonatype/sisu/sisu-guice/2.1.7/sisu-guice-2.1.7-noaop.jar:/Users/sasireddy/.m2/repository/org/apache/maven/maven-artifact/3.0/maven-artifact-3.0.jar:/Users/sasireddy/.m2/repository/org/codehaus/plexus/plexus-utils/2.0.4/plexus-utils-2.0.4.jar:/Users/sasireddy/.m2/repository/org/apache/maven/maven-core/3.0/maven-core-3.0.jar:/Users/sasireddy/.m2/repository/org/apache/maven/maven-settings/3.0/maven-settings-3.0.jar:/Users/sasireddy/.m2/repository/org/apache/maven/maven-settings-builder/3.0/maven-settings-builder-3.0.jar:/Users/sasireddy/.m2/repository/org/apache/maven/maven-repository-metadata/3.0/maven-repository-metadata-3.0.jar:/Users/sasireddy/.m2/repository/org/apache/maven/maven-model-builder/3.0/maven-model-builder-3.0.jar:/Users/sasireddy/.m2/repository/org/apache/maven/maven-aether-provider/3.0/maven-aether-provider-3.0.jar:/Users/sasireddy/.m2/repository/org/sonatype/aether/aether-impl/1.7/aether-impl-1.7.jar:/Users/sasireddy/.m2/repository/org/sonatype/aether/aether-spi/1.7/aether-spi-1.7.jar:/Users/sasireddy/.m2/repository/org/sonatype/aether/aether-api/1.7/aether-api-1.7.jar:/Users/sasireddy/.m2/repository/org/sonatype/aether/aether-util/1.7/aether-util-1.7.jar:/Users/sasireddy/.m2/repository/org/codehaus/plexus/plexus-interpolation/1.14/plexus-interpolation-1.14.jar:/Users/sasireddy/.m2/repository/org/codehaus/plexus/plexus-classworlds/2.2.3/plexus-classworlds-2.2.3.jar:/Users/sasireddy/.m2/repository/org/codehaus/plexus/plexus-component-annotations/1.5.5/plexus-component-annotations-1.5.5.jar:/Users/sasireddy/.m2/repository/org/sonatype/plexus/plexus-sec-dispatcher/1.3/plexus-sec-dispatcher-1.3.jar:/Users/sasireddy/.m2/repository/org/sonatype/plexus/plexus-cipher/1.4/plexus-cipher-1.4.jar:/Users/sasireddy/.m2/repository/org/apache/maven/shared/maven-shared-utils/3.1.0/maven-shared-utils-3.1.0.jar:/Users/sasireddy/.m2/repository/commons-io/commons-io/2.5/commons-io-2.5.jar:/Users/sasireddy/.m2/repository/org/apache/maven/shared/maven-shared-incremental/1.1/maven-shared-incremental-1.1.jar:/Users/sasireddy/.m2/repository/org/codehaus/plexus/plexus-java/0.9.2/plexus-java-0.9.2.jar:/Users/sasireddy/.m2/repository/org/ow2/asm/asm/6.0_BETA/asm-6.0_BETA.jar:/Users/sasireddy/.m2/repository/com/thoughtworks/qdox/qdox/2.0-M7/qdox-2.0-M7.jar:/Users/sasireddy/.m2/repository/org/codehaus/plexus/plexus-compiler-api/2.8.2/plexus-compiler-api-2.8.2.jar:/Users/sasireddy/.m2/repository/org/codehaus/plexus/plexus-compiler-manager/2.8.2/plexus-compiler-manager-2.8.2.jar:/Users/sasireddy/.m2/repository/org/codehaus/plexus/plexus-compiler-javac/2.8.2/plexus-compiler-javac-2.8.2.jar:/Users/sasireddy/.m2/repository/org/apache/maven/surefire/maven-surefire-common/2.20.1/maven-surefire-common-2.20.1.jar:/Users/sasireddy/.m2/repository/org/apache/maven/plugin-tools/maven-plugin-annotations/3.3/maven-plugin-annotations-3.3.jar:/Users/sasireddy/.m2/repository/org/apache/maven/surefire/surefire-api/2.20.1/surefire-api-2.20.1.jar:/Users/sasireddy/.m2/repository/org/apache/maven/surefire/surefire-logger-api/2.20.1/surefire-logger-api-2.20.1.jar:/Users/sasireddy/.m2/repository/org/apache/maven/surefire/surefire-booter/2.20.1/surefire-booter-2.20.1.jar:/Users/sasireddy/.m2/repository/org/apache/maven/maven-plugin-descriptor/2.2.1/maven-plugin-descriptor-2.2.1.jar:/Users/sasireddy/.m2/repository/org/codehaus/plexus/plexus-container-default/1.0-alpha-9-stable-1/plexus-container-default-1.0-alpha-9-stable-1.jar:/Users/sasireddy/.m2/repository/junit/junit/3.8.1/junit-3.8.1.jar:/Users/sasireddy/.m2/repository/classworlds/classworlds/1.1-alpha-2/classworlds-1.1-alpha-2.jar:/Users/sasireddy/.m2/repository/org/apache/maven/maven-project/2.2.1/maven-project-2.2.1.jar:/Users/sasireddy/.m2/repository/org/apache/maven/maven-profile/2.2.1/maven-profile-2.2.1.jar:/Users/sasireddy/.m2/repository/org/apache/maven/maven-artifact-manager/2.2.1/maven-artifact-manager-2.2.1.jar:/Users/sasireddy/.m2/repository/org/apache/maven/wagon/wagon-provider-api/1.0-beta-6/wagon-provider-api-1.0-beta-6.jar:/Users/sasireddy/.m2/repository/backport-util-concurrent/backport-util-concurrent/3.1/backport-util-concurrent-3.1.jar:/Users/sasireddy/.m2/repository/org/apache/maven/maven-plugin-registry/2.2.1/maven-plugin-registry-2.2.1.jar:/Users/sasireddy/.m2/repository/org/apache/maven/maven-model/2.2.1/maven-model-2.2.1.jar:/Users/sasireddy/.m2/repository/org/apache/maven/maven-toolchain/2.2.1/maven-toolchain-2.2.1.jar:/Users/sasireddy/.m2/repository/com/aventstack/extentreports/3.1.5/extentreports-3.1.5.jar:/Users/sasireddy/.m2/repository/org/freemarker/freemarker/2.3.23/freemarker-2.3.23.jar:/Users/sasireddy/.m2/repository/org/mongodb/mongodb-driver/3.3.0/mongodb-driver-3.3.0.jar:/Users/sasireddy/.m2/repository/org/mongodb/bson/3.3.0/bson-3.3.0.jar:/Users/sasireddy/.m2/repository/org/mongodb/mongodb-driver-core/3.3.0/mongodb-driver-core-3.3.0.jar:/Users/sasireddy/.m2/repository/org/apache/httpcomponents/httpclient/4.5.2/httpclient-4.5.2.jar:/Users/sasireddy/.m2/repository/org/apache/httpcomponents/httpcore/4.4.4/httpcore-4.4.4.jar:/Users/sasireddy/.m2/repository/commons-codec/commons-codec/1.9/commons-codec-1.9.jar:/Users/sasireddy/.m2/repository/org/apache/httpcomponents/httpmime/4.5.2/httpmime-4.5.2.jar:/Users/sasireddy/.m2/repository/org/jsoup/jsoup/1.9.2/jsoup-1.9.2.jar:/Users/sasireddy/.m2/repository/com/google/code/gson/gson/2.8.0/gson-2.8.0.jar:/Users/sasireddy/.m2/repository/org/uncommons/reportng/1.1.4/reportng-1.1.4.jar:/Users/sasireddy/.m2/repository/velocity/velocity/1.4/velocity-1.4.jar:/Users/sasireddy/.m2/repository/velocity/velocity-dep/1.4/velocity-dep-1.4.jar:/Users/sasireddy/.m2/repository/com/google/inject/guice/4.2.2/guice-4.2.2.jar:/Users/sasireddy/.m2/repository/javax/inject/javax.inject/1/javax.inject-1.jar:/Users/sasireddy/.m2/repository/aopalliance/aopalliance/1.0/aopalliance-1.0.jar:/Users/sasireddy/.m2/repository/log4j/log4j/1.2.17/log4j-1.2.17.jar:/Users/sasireddy/.m2/repository/javax/mail/mail/1.4.7/mail-1.4.7.jar:/Users/sasireddy/.m2/repository/javax/activation/activation/1.1/activation-1.1.jar:/Users/sasireddy/.m2/repository/mysql/mysql-connector-java/6.0.5/mysql-connector-java-6.0.5.jar:/Users/sasireddy/.m2/repository/org/apache/poi/poi/3.6/poi-3.6.jar:/Users/sasireddy/.m2/repository/commons-logging/commons-logging/1.1/commons-logging-1.1.jar:/Users/sasireddy/.m2/repository/logkit/logkit/1.0.1/logkit-1.0.1.jar:/Users/sasireddy/.m2/repository/avalon-framework/avalon-framework/4.1.3/avalon-framework-4.1.3.jar:/Users/sasireddy/.m2/repository/javax/servlet/servlet-api/2.3/servlet-api-2.3.jar:/Users/sasireddy/.m2/repository/org/apache/poi/poi-ooxml/3.6/poi-ooxml-3.6.jar:/Users/sasireddy/.m2/repository/dom4j/dom4j/1.1/dom4j-1.1.jar:/Users/sasireddy/.m2/repository/org/apache/xmlbeans/xmlbeans/2.3.0/xmlbeans-2.3.0.jar:/Users/sasireddy/.m2/repository/stax/stax-api/1.0.1/stax-api-1.0.1.jar:/Users/sasireddy/.m2/repository/org/apache/poi/poi-ooxml-schemas/3.6/poi-ooxml-schemas-3.6.jar:/Users/sasireddy/.m2/repository/org/apache/geronimo/specs/geronimo-stax-api_1.0_spec/1.0/geronimo-stax-api_1.0_spec-1.0.jar:/Users/sasireddy/.m2/repository/com/github/javafaker/javafaker/0.12/javafaker-0.12.jar:/Users/sasireddy/.m2/repository/org/apache/commons/commons-lang3/3.5/commons-lang3-3.5.jar:/Users/sasireddy/.m2/repository/com/github/mifmif/generex/1.0.2/generex-1.0.2.jar:/Users/sasireddy/.m2/repository/dk/brics/automaton/automaton/1.11-8/automaton-1.11-8.jar:/Users/sasireddy/.m2/repository/com/arakelian/faker/3.7.0/faker-3.7.0.jar:/Users/sasireddy/.m2/repository/org/immutables/value-annotations/2.8.8/value-annotations-2.8.8.jar:/Users/sasireddy/.m2/repository/com/arakelian/more-commons/2.5.0/more-commons-2.5.0.jar:/Users/sasireddy/.m2/repository/com/arakelian/key-value-store/2.6.0/key-value-store-2.6.0.jar:/Users/sasireddy/.m2/repository/com/lmax/disruptor/3.4.2/disruptor-3.4.2.jar:/Users/sasireddy/.m2/repository/com/fasterxml/jackson/core/jackson-databind/2.11.0/jackson-databind-2.11.0.jar:/Users/sasireddy/.m2/repository/com/fasterxml/jackson/core/jackson-annotations/2.11.0/jackson-annotations-2.11.0.jar:/Users/sasireddy/.m2/repository/com/arakelian/jackson-utils/3.3.0/jackson-utils-3.3.0.jar:/Users/sasireddy/.m2/repository/com/fasterxml/jackson/core/jackson-core/2.11.0/jackson-core-2.11.0.jar:/Users/sasireddy/.m2/repository/com/fasterxml/jackson/module/jackson-module-parameter-names/2.11.0/jackson-module-parameter-names-2.11.0.jar:/Users/sasireddy/.m2/repository/com/fasterxml/jackson/datatype/jackson-datatype-jdk8/2.11.0/jackson-datatype-jdk8-2.11.0.jar:/Users/sasireddy/.m2/repository/org/slf4j/slf4j-api/1.7.29/slf4j-api-1.7.29.jar:"/>
    <property name="java.vm.vendor" value="Oracle Corporation"/>
    <property name="sun.arch.data.model" value="64"/>
    <property name="java.vendor.url" value="https://java.oracle.com/"/>
    <property name="os.name" value="Mac OS X"/>
    <property name="java.vm.specification.version" value="14"/>
    <property name="sun.java.launcher" value="SUN_STANDARD"/>
    <property name="user.country" value="US"/>
    <property name="sun.boot.library.path" value="/Library/Java/JavaVirtualMachines/jdk-14.0.1.jdk/Contents/Home/lib"/>
    <property name="sun.java.command" value="/Users/sasireddy/eclipse-workspace/Barn2Door/target/surefire/surefirebooter313584343411430122.jar /Users/sasireddy/eclipse-workspace/Barn2Door/target/surefire 2020-07-14T13-49-19_178-jvmRun1 surefire9043882369679768709tmp surefire_011107066241249225909tmp"/>
    <property name="http.nonProxyHosts" value="local|*.local|169.254/16|*.169.254/16"/>
    <property name="jdk.debug" value="release"/>
    <property name="surefire.test.class.path" value="/Users/sasireddy/eclipse-workspace/Barn2Door/target/test-classes:/Users/sasireddy/eclipse-workspace/Barn2Door/target/classes:/Users/sasireddy/.m2/repository/org/testng/testng/6.11/testng-6.11.jar:/Users/sasireddy/.m2/repository/com/beust/jcommander/1.64/jcommander-1.64.jar:/Users/sasireddy/.m2/repository/org/yaml/snakeyaml/1.17/snakeyaml-1.17.jar:/Users/sasireddy/.m2/repository/org/seleniumhq/selenium/selenium-java/3.141.59/selenium-java-3.141.59.jar:/Users/sasireddy/.m2/repository/org/seleniumhq/selenium/selenium-api/3.141.59/selenium-api-3.141.59.jar:/Users/sasireddy/.m2/repository/org/seleniumhq/selenium/selenium-chrome-driver/3.141.59/selenium-chrome-driver-3.141.59.jar:/Users/sasireddy/.m2/repository/org/seleniumhq/selenium/selenium-edge-driver/3.141.59/selenium-edge-driver-3.141.59.jar:/Users/sasireddy/.m2/repository/org/seleniumhq/selenium/selenium-firefox-driver/3.141.59/selenium-firefox-driver-3.141.59.jar:/Users/sasireddy/.m2/repository/org/seleniumhq/selenium/selenium-ie-driver/3.141.59/selenium-ie-driver-3.141.59.jar:/Users/sasireddy/.m2/repository/org/seleniumhq/selenium/selenium-opera-driver/3.141.59/selenium-opera-driver-3.141.59.jar:/Users/sasireddy/.m2/repository/org/seleniumhq/selenium/selenium-remote-driver/3.141.59/selenium-remote-driver-3.141.59.jar:/Users/sasireddy/.m2/repository/org/seleniumhq/selenium/selenium-safari-driver/3.141.59/selenium-safari-driver-3.141.59.jar:/Users/sasireddy/.m2/repository/org/seleniumhq/selenium/selenium-support/3.141.59/selenium-support-3.141.59.jar:/Users/sasireddy/.m2/repository/net/bytebuddy/byte-buddy/1.8.15/byte-buddy-1.8.15.jar:/Users/sasireddy/.m2/repository/org/apache/commons/commons-exec/1.3/commons-exec-1.3.jar:/Users/sasireddy/.m2/repository/com/google/guava/guava/25.0-jre/guava-25.0-jre.jar:/Users/sasireddy/.m2/repository/com/google/code/findbugs/jsr305/1.3.9/jsr305-1.3.9.jar:/Users/sasireddy/.m2/repository/org/checkerframework/checker-compat-qual/2.0.0/checker-compat-qual-2.0.0.jar:/Users/sasireddy/.m2/repository/com/google/errorprone/error_prone_annotations/2.1.3/error_prone_annotations-2.1.3.jar:/Users/sasireddy/.m2/repository/com/google/j2objc/j2objc-annotations/1.1/j2objc-annotations-1.1.jar:/Users/sasireddy/.m2/repository/org/codehaus/mojo/animal-sniffer-annotations/1.14/animal-sniffer-annotations-1.14.jar:/Users/sasireddy/.m2/repository/com/squareup/okhttp3/okhttp/3.11.0/okhttp-3.11.0.jar:/Users/sasireddy/.m2/repository/com/squareup/okio/okio/1.14.0/okio-1.14.0.jar:/Users/sasireddy/.m2/repository/org/apache/maven/plugins/maven-compiler-plugin/3.7.0/maven-compiler-plugin-3.7.0.jar:/Users/sasireddy/.m2/repository/org/apache/maven/maven-plugin-api/3.0/maven-plugin-api-3.0.jar:/Users/sasireddy/.m2/repository/org/sonatype/sisu/sisu-inject-plexus/1.4.2/sisu-inject-plexus-1.4.2.jar:/Users/sasireddy/.m2/repository/org/sonatype/sisu/sisu-inject-bean/1.4.2/sisu-inject-bean-1.4.2.jar:/Users/sasireddy/.m2/repository/org/sonatype/sisu/sisu-guice/2.1.7/sisu-guice-2.1.7-noaop.jar:/Users/sasireddy/.m2/repository/org/apache/maven/maven-artifact/3.0/maven-artifact-3.0.jar:/Users/sasireddy/.m2/repository/org/codehaus/plexus/plexus-utils/2.0.4/plexus-utils-2.0.4.jar:/Users/sasireddy/.m2/repository/org/apache/maven/maven-core/3.0/maven-core-3.0.jar:/Users/sasireddy/.m2/repository/org/apache/maven/maven-settings/3.0/maven-settings-3.0.jar:/Users/sasireddy/.m2/repository/org/apache/maven/maven-settings-builder/3.0/maven-settings-builder-3.0.jar:/Users/sasireddy/.m2/repository/org/apache/maven/maven-repository-metadata/3.0/maven-repository-metadata-3.0.jar:/Users/sasireddy/.m2/repository/org/apache/maven/maven-model-builder/3.0/maven-model-builder-3.0.jar:/Users/sasireddy/.m2/repository/org/apache/maven/maven-aether-provider/3.0/maven-aether-provider-3.0.jar:/Users/sasireddy/.m2/repository/org/sonatype/aether/aether-impl/1.7/aether-impl-1.7.jar:/Users/sasireddy/.m2/repository/org/sonatype/aether/aether-spi/1.7/aether-spi-1.7.jar:/Users/sasireddy/.m2/repository/org/sonatype/aether/aether-api/1.7/aether-api-1.7.jar:/Users/sasireddy/.m2/repository/org/sonatype/aether/aether-util/1.7/aether-util-1.7.jar:/Users/sasireddy/.m2/repository/org/codehaus/plexus/plexus-interpolation/1.14/plexus-interpolation-1.14.jar:/Users/sasireddy/.m2/repository/org/codehaus/plexus/plexus-classworlds/2.2.3/plexus-classworlds-2.2.3.jar:/Users/sasireddy/.m2/repository/org/codehaus/plexus/plexus-component-annotations/1.5.5/plexus-component-annotations-1.5.5.jar:/Users/sasireddy/.m2/repository/org/sonatype/plexus/plexus-sec-dispatcher/1.3/plexus-sec-dispatcher-1.3.jar:/Users/sasireddy/.m2/repository/org/sonatype/plexus/plexus-cipher/1.4/plexus-cipher-1.4.jar:/Users/sasireddy/.m2/repository/org/apache/maven/shared/maven-shared-utils/3.1.0/maven-shared-utils-3.1.0.jar:/Users/sasireddy/.m2/repository/commons-io/commons-io/2.5/commons-io-2.5.jar:/Users/sasireddy/.m2/repository/org/apache/maven/shared/maven-shared-incremental/1.1/maven-shared-incremental-1.1.jar:/Users/sasireddy/.m2/repository/org/codehaus/plexus/plexus-java/0.9.2/plexus-java-0.9.2.jar:/Users/sasireddy/.m2/repository/org/ow2/asm/asm/6.0_BETA/asm-6.0_BETA.jar:/Users/sasireddy/.m2/repository/com/thoughtworks/qdox/qdox/2.0-M7/qdox-2.0-M7.jar:/Users/sasireddy/.m2/repository/org/codehaus/plexus/plexus-compiler-api/2.8.2/plexus-compiler-api-2.8.2.jar:/Users/sasireddy/.m2/repository/org/codehaus/plexus/plexus-compiler-manager/2.8.2/plexus-compiler-manager-2.8.2.jar:/Users/sasireddy/.m2/repository/org/codehaus/plexus/plexus-compiler-javac/2.8.2/plexus-compiler-javac-2.8.2.jar:/Users/sasireddy/.m2/repository/org/apache/maven/surefire/maven-surefire-common/2.20.1/maven-surefire-common-2.20.1.jar:/Users/sasireddy/.m2/repository/org/apache/maven/plugin-tools/maven-plugin-annotations/3.3/maven-plugin-annotations-3.3.jar:/Users/sasireddy/.m2/repository/org/apache/maven/surefire/surefire-api/2.20.1/surefire-api-2.20.1.jar:/Users/sasireddy/.m2/repository/org/apache/maven/surefire/surefire-logger-api/2.20.1/surefire-logger-api-2.20.1.jar:/Users/sasireddy/.m2/repository/org/apache/maven/surefire/surefire-booter/2.20.1/surefire-booter-2.20.1.jar:/Users/sasireddy/.m2/repository/org/apache/maven/maven-plugin-descriptor/2.2.1/maven-plugin-descriptor-2.2.1.jar:/Users/sasireddy/.m2/repository/org/codehaus/plexus/plexus-container-default/1.0-alpha-9-stable-1/plexus-container-default-1.0-alpha-9-stable-1.jar:/Users/sasireddy/.m2/repository/junit/junit/3.8.1/junit-3.8.1.jar:/Users/sasireddy/.m2/repository/classworlds/classworlds/1.1-alpha-2/classworlds-1.1-alpha-2.jar:/Users/sasireddy/.m2/repository/org/apache/maven/maven-project/2.2.1/maven-project-2.2.1.jar:/Users/sasireddy/.m2/repository/org/apache/maven/maven-profile/2.2.1/maven-profile-2.2.1.jar:/Users/sasireddy/.m2/repository/org/apache/maven/maven-artifact-manager/2.2.1/maven-artifact-manager-2.2.1.jar:/Users/sasireddy/.m2/repository/org/apache/maven/wagon/wagon-provider-api/1.0-beta-6/wagon-provider-api-1.0-beta-6.jar:/Users/sasireddy/.m2/repository/backport-util-concurrent/backport-util-concurrent/3.1/backport-util-concurrent-3.1.jar:/Users/sasireddy/.m2/repository/org/apache/maven/maven-plugin-registry/2.2.1/maven-plugin-registry-2.2.1.jar:/Users/sasireddy/.m2/repository/org/apache/maven/maven-model/2.2.1/maven-model-2.2.1.jar:/Users/sasireddy/.m2/repository/org/apache/maven/maven-toolchain/2.2.1/maven-toolchain-2.2.1.jar:/Users/sasireddy/.m2/repository/com/aventstack/extentreports/3.1.5/extentreports-3.1.5.jar:/Users/sasireddy/.m2/repository/org/freemarker/freemarker/2.3.23/freemarker-2.3.23.jar:/Users/sasireddy/.m2/repository/org/mongodb/mongodb-driver/3.3.0/mongodb-driver-3.3.0.jar:/Users/sasireddy/.m2/repository/org/mongodb/bson/3.3.0/bson-3.3.0.jar:/Users/sasireddy/.m2/repository/org/mongodb/mongodb-driver-core/3.3.0/mongodb-driver-core-3.3.0.jar:/Users/sasireddy/.m2/repository/org/apache/httpcomponents/httpclient/4.5.2/httpclient-4.5.2.jar:/Users/sasireddy/.m2/repository/org/apache/httpcomponents/httpcore/4.4.4/httpcore-4.4.4.jar:/Users/sasireddy/.m2/repository/commons-codec/commons-codec/1.9/commons-codec-1.9.jar:/Users/sasireddy/.m2/repository/org/apache/httpcomponents/httpmime/4.5.2/httpmime-4.5.2.jar:/Users/sasireddy/.m2/repository/org/jsoup/jsoup/1.9.2/jsoup-1.9.2.jar:/Users/sasireddy/.m2/repository/com/google/code/gson/gson/2.8.0/gson-2.8.0.jar:/Users/sasireddy/.m2/repository/org/uncommons/reportng/1.1.4/reportng-1.1.4.jar:/Users/sasireddy/.m2/repository/velocity/velocity/1.4/velocity-1.4.jar:/Users/sasireddy/.m2/repository/velocity/velocity-dep/1.4/velocity-dep-1.4.jar:/Users/sasireddy/.m2/repository/com/google/inject/guice/4.2.2/guice-4.2.2.jar:/Users/sasireddy/.m2/repository/javax/inject/javax.inject/1/javax.inject-1.jar:/Users/sasireddy/.m2/repository/aopalliance/aopalliance/1.0/aopalliance-1.0.jar:/Users/sasireddy/.m2/repository/log4j/log4j/1.2.17/log4j-1.2.17.jar:/Users/sasireddy/.m2/repository/javax/mail/mail/1.4.7/mail-1.4.7.jar:/Users/sasireddy/.m2/repository/javax/activation/activation/1.1/activation-1.1.jar:/Users/sasireddy/.m2/repository/mysql/mysql-connector-java/6.0.5/mysql-connector-java-6.0.5.jar:/Users/sasireddy/.m2/repository/org/apache/poi/poi/3.6/poi-3.6.jar:/Users/sasireddy/.m2/repository/commons-logging/commons-logging/1.1/commons-logging-1.1.jar:/Users/sasireddy/.m2/repository/logkit/logkit/1.0.1/logkit-1.0.1.jar:/Users/sasireddy/.m2/repository/avalon-framework/avalon-framework/4.1.3/avalon-framework-4.1.3.jar:/Users/sasireddy/.m2/repository/javax/servlet/servlet-api/2.3/servlet-api-2.3.jar:/Users/sasireddy/.m2/repository/org/apache/poi/poi-ooxml/3.6/poi-ooxml-3.6.jar:/Users/sasireddy/.m2/repository/dom4j/dom4j/1.1/dom4j-1.1.jar:/Users/sasireddy/.m2/repository/org/apache/xmlbeans/xmlbeans/2.3.0/xmlbeans-2.3.0.jar:/Users/sasireddy/.m2/repository/stax/stax-api/1.0.1/stax-api-1.0.1.jar:/Users/sasireddy/.m2/repository/org/apache/poi/poi-ooxml-schemas/3.6/poi-ooxml-schemas-3.6.jar:/Users/sasireddy/.m2/repository/org/apache/geronimo/specs/geronimo-stax-api_1.0_spec/1.0/geronimo-stax-api_1.0_spec-1.0.jar:/Users/sasireddy/.m2/repository/com/github/javafaker/javafaker/0.12/javafaker-0.12.jar:/Users/sasireddy/.m2/repository/org/apache/commons/commons-lang3/3.5/commons-lang3-3.5.jar:/Users/sasireddy/.m2/repository/com/github/mifmif/generex/1.0.2/generex-1.0.2.jar:/Users/sasireddy/.m2/repository/dk/brics/automaton/automaton/1.11-8/automaton-1.11-8.jar:/Users/sasireddy/.m2/repository/com/arakelian/faker/3.7.0/faker-3.7.0.jar:/Users/sasireddy/.m2/repository/org/immutables/value-annotations/2.8.8/value-annotations-2.8.8.jar:/Users/sasireddy/.m2/repository/com/arakelian/more-commons/2.5.0/more-commons-2.5.0.jar:/Users/sasireddy/.m2/repository/com/arakelian/key-value-store/2.6.0/key-value-store-2.6.0.jar:/Users/sasireddy/.m2/repository/com/lmax/disruptor/3.4.2/disruptor-3.4.2.jar:/Users/sasireddy/.m2/repository/com/fasterxml/jackson/core/jackson-databind/2.11.0/jackson-databind-2.11.0.jar:/Users/sasireddy/.m2/repository/com/fasterxml/jackson/core/jackson-annotations/2.11.0/jackson-annotations-2.11.0.jar:/Users/sasireddy/.m2/repository/com/arakelian/jackson-utils/3.3.0/jackson-utils-3.3.0.jar:/Users/sasireddy/.m2/repository/com/fasterxml/jackson/core/jackson-core/2.11.0/jackson-core-2.11.0.jar:/Users/sasireddy/.m2/repository/com/fasterxml/jackson/module/jackson-module-parameter-names/2.11.0/jackson-module-parameter-names-2.11.0.jar:/Users/sasireddy/.m2/repository/com/fasterxml/jackson/datatype/jackson-datatype-jdk8/2.11.0/jackson-datatype-jdk8-2.11.0.jar:/Users/sasireddy/.m2/repository/org/slf4j/slf4j-api/1.7.29/slf4j-api-1.7.29.jar:"/>
    <property name="sun.cpu.endian" value="little"/>
    <property name="user.home" value="/Users/sasireddy"/>
    <property name="user.language" value="en"/>
    <property name="java.specification.vendor" value="Oracle Corporation"/>
    <property name="java.version.date" value="2020-04-14"/>
    <property name="java.home" value="/Library/Java/JavaVirtualMachines/jdk-14.0.1.jdk/Contents/Home"/>
    <property name="file.separator" value="/"/>
    <property name="basedir" value="/Users/sasireddy/eclipse-workspace/Barn2Door"/>
    <property name="java.vm.compressedOopsMode" value="Zero based"/>
    <property name="line.separator" value="&#10;"/>
    <property name="java.specification.name" value="Java Platform API Specification"/>
    <property name="java.vm.specification.vendor" value="Oracle Corporation"/>
    <property name="surefire.real.class.path" value="/Users/sasireddy/eclipse-workspace/Barn2Door/target/surefire/surefirebooter313584343411430122.jar"/>
    <property name="sun.management.compiler" value="HotSpot 64-Bit Tiered Compilers"/>
    <property name="ftp.nonProxyHosts" value="local|*.local|169.254/16|*.169.254/16"/>
    <property name="java.runtime.version" value="14.0.1+7"/>
    <property name="user.name" value="sasireddy"/>
    <property name="path.separator" value=":"/>
    <property name="os.version" value="10.15.5"/>
    <property name="java.runtime.name" value="Java(TM) SE Runtime Environment"/>
    <property name="file.encoding" value="UTF-8"/>
    <property name="java.vm.name" value="Java HotSpot(TM) 64-Bit Server VM"/>
    <property name="localRepository" value="/Users/sasireddy/.m2/repository"/>
    <property name="java.vendor.url.bug" value="https://bugreport.java.com/bugreport/"/>
    <property name="java.io.tmpdir" value="/var/folders/n_/8zjz9qrx3r580s9d1w14sj_40000gn/T/"/>
    <property name="java.version" value="14.0.1"/>
    <property name="user.dir" value="/Users/sasireddy/eclipse-workspace/Barn2Door"/>
    <property name="os.arch" value="x86_64"/>
    <property name="java.vm.specification.name" value="Java Virtual Machine Specification"/>
    <property name="java.library.path" value="/Users/sasireddy/Library/Java/Extensions:/Library/Java/Extensions:/Network/Library/Java/Extensions:/System/Library/Java/Extensions:/usr/lib/java:."/>
    <property name="java.vm.info" value="mixed mode, sharing"/>
    <property name="java.vendor" value="Oracle Corporation"/>
    <property name="java.vm.version" value="14.0.1+7"/>
    <property name="sun.io.unicode.encoding" value="UnicodeBig"/>
    <property name="socksNonProxyHosts" value="local|*.local|169.254/16|*.169.254/16"/>
    <property name="java.class.version" value="58.0"/>
  </properties>
  <testcase name="ToBuy" classname="com.barn2door.signup.SignUptoBuy_Test" time="33.123"/>
</testsuite>